{
   "response":{
      "status":"ok",
      "userTier":"developer",
      "total":8818,
      "startIndex":1,
      "pageSize":10,
      "currentPage":1,
      "pages":882,
      "orderBy":"newest",
      "results":[
         {
            "id":"food/2023/apr/04/easter-dessert-make-in-advance-kitchen-aide",
            "type":"article",
            "sectionId":"food",
            "sectionName":"Food",
            "webPublicationDate":"2023-04-04T13:00:41Z",
            "webTitle":"Make or bake: I need a great dessert for Easter I can make in advance",
            "webUrl":"https://www.theguardian.com/food/2023/apr/04/easter-dessert-make-in-advance-kitchen-aide",
            "apiUrl":"https://content.guardianapis.com/food/2023/apr/04/easter-dessert-make-in-advance-kitchen-aide",
            "fields":{
               "headline":"Make or bake: I need a great dessert for Easter I can make in advance",
               "thumbnail":"https://media.guim.co.uk/cf7a59de6ab0695e376adca84fb2162b61310ef8/0_268_3872_2324/500.jpg"
            },
            "tags":[

            ],
            "isHosted":false,
            "pillarId":"pillar/lifestyle",
            "pillarName":"Lifestyle"
         },
         {
            "id":"food/2023/apr/03/henry-dimbleby-recipes-for-healthy-family-friendly-fast-food",
            "type":"article",
            "sectionId":"food",
            "sectionName":"Food",
            "webPublicationDate":"2023-04-03T12:00:16Z",
            "webTitle":"Henry Dimbleby’s recipes for healthy family friendly fast-food",
            "webUrl":"https://www.theguardian.com/food/2023/apr/03/henry-dimbleby-recipes-for-healthy-family-friendly-fast-food",
            "apiUrl":"https://content.guardianapis.com/food/2023/apr/03/henry-dimbleby-recipes-for-healthy-family-friendly-fast-food",
            "fields":{
               "headline":"Henry Dimbleby’s recipes for healthy family friendly fast-food",
               "thumbnail":"https://media.guim.co.uk/fff2482696d3c32d23a6b4b6155fa2f90304c3d1/0_1644_4333_2600/500.jpg"
            },
            "tags":[

            ],
            "isHosted":false,
            "pillarId":"pillar/lifestyle",
            "pillarName":"Lifestyle"
         },
         {
            "id":"food/2023/apr/03/roman-braised-goat-recipe-rosemary-and-potatoes-rachel-roddy",
            "type":"article",
            "sectionId":"food",
            "sectionName":"Food",
            "webPublicationDate":"2023-04-03T10:00:14Z",
            "webTitle":"Rachel Roddy’s recipe for braised goat with rosemary and potatoes | A kitchen in Rome",
            "webUrl":"https://www.theguardian.com/food/2023/apr/03/roman-braised-goat-recipe-rosemary-and-potatoes-rachel-roddy",
            "apiUrl":"https://content.guardianapis.com/food/2023/apr/03/roman-braised-goat-recipe-rosemary-and-potatoes-rachel-roddy",
            "fields":{
               "headline":"Rachel Roddy’s recipe for braised goat with rosemary and potatoes ",
               "thumbnail":"https://media.guim.co.uk/9e80f6747e5594bf4e49006eb9904f7481e919a7/0_2738_4000_2400/500.jpg"
            },
            "tags":[

            ],
            "isHosted":false,
            "pillarId":"pillar/lifestyle",
            "pillarName":"Lifestyle"
         },
         {
            "id":"food/2023/apr/01/chocolate-buttermilk-hazelnut-easter-cake-recipe-benjamina-ebuehi",
            "type":"article",
            "sectionId":"food",
            "sectionName":"Food",
            "webPublicationDate":"2023-04-01T13:00:52Z",
            "webTitle":"Benjamina Ebuehi’s chocolate, buttermilk and hazelnut cake – recipe",
            "webUrl":"https://www.theguardian.com/food/2023/apr/01/chocolate-buttermilk-hazelnut-easter-cake-recipe-benjamina-ebuehi",
            "apiUrl":"https://content.guardianapis.com/food/2023/apr/01/chocolate-buttermilk-hazelnut-easter-cake-recipe-benjamina-ebuehi",
            "fields":{
               "headline":"Benjamina Ebuehi’s chocolate, buttermilk and hazelnut cake – recipe",
               "thumbnail":"https://media.guim.co.uk/3a12c0e68ceaf35ef8d02bf0679c14ec8911b0e7/0_1041_5792_3475/500.jpg"
            },
            "tags":[

            ],
            "isHosted":false,
            "pillarId":"pillar/lifestyle",
            "pillarName":"Lifestyle"
         },
         {
            "id":"food/2023/apr/01/thomasina-miers-recipe-for-roast-hake-and-asparagus-with-grilled-spring-onion-butter",
            "type":"article",
            "sectionId":"food",
            "sectionName":"Food",
            "webPublicationDate":"2023-04-01T09:00:47Z",
            "webTitle":"Thomasina Miers’ recipe for roast hake and asparagus with grilled spring-onion butter | Sunday best",
            "webUrl":"https://www.theguardian.com/food/2023/apr/01/thomasina-miers-recipe-for-roast-hake-and-asparagus-with-grilled-spring-onion-butter",
            "apiUrl":"https://content.guardianapis.com/food/2023/apr/01/thomasina-miers-recipe-for-roast-hake-and-asparagus-with-grilled-spring-onion-butter",
            "fields":{
               "headline":"Thomasina Miers’ recipe for roast hake and asparagus with grilled spring-onion butter",
               "thumbnail":"https://media.guim.co.uk/b3797fd51c0fdd55ff6489047fd7e8049861ab07/0_1379_3840_2304/500.jpg"
            },
            "tags":[

            ],
            "isHosted":false,
            "pillarId":"pillar/lifestyle",
            "pillarName":"Lifestyle"
         },
         {
            "id":"food/2023/apr/01/how-to-turn-leftover-roast-lamb-into-a-classic-irish-pie-zero-waste-cooking",
            "type":"article",
            "sectionId":"food",
            "sectionName":"Food",
            "webPublicationDate":"2023-04-01T05:00:42Z",
            "webTitle":"How to turn leftover roast lamb into a classic Irish pie | Waste not",
            "webUrl":"https://www.theguardian.com/food/2023/apr/01/how-to-turn-leftover-roast-lamb-into-a-classic-irish-pie-zero-waste-cooking",
            "apiUrl":"https://content.guardianapis.com/food/2023/apr/01/how-to-turn-leftover-roast-lamb-into-a-classic-irish-pie-zero-waste-cooking",
            "fields":{
               "headline":"How to turn leftover roast lamb into a classic Irish pie",
               "thumbnail":"https://media.guim.co.uk/edce34c8497331ea8924cf82165ab0bbab9b515b/656_482_2924_1754/500.jpg"
            },
            "tags":[

            ],
            "isHosted":false,
            "pillarId":"pillar/lifestyle",
            "pillarName":"Lifestyle"
         },
         {
            "id":"food/2023/mar/31/cocktail-of-the-week-jack-bevan-amaro-hot-chocolate-recipe",
            "type":"article",
            "sectionId":"food",
            "sectionName":"Food",
            "webPublicationDate":"2023-03-31T15:00:26Z",
            "webTitle":"Cocktail of the week: Jack Adair Bevan’s amaro hot chocolate - recipe | The good mixer",
            "webUrl":"https://www.theguardian.com/food/2023/mar/31/cocktail-of-the-week-jack-bevan-amaro-hot-chocolate-recipe",
            "apiUrl":"https://content.guardianapis.com/food/2023/mar/31/cocktail-of-the-week-jack-bevan-amaro-hot-chocolate-recipe",
            "fields":{
               "headline":"Cocktail of the week: Jack Adair Bevan’s amaro hot chocolate – recipe",
               "thumbnail":"https://media.guim.co.uk/d479151f09e9d5f13f47657a3f16a7c0b5ce55ed/0_1268_3747_2247/500.jpg"
            },
            "tags":[

            ],
            "isHosted":false,
            "pillarId":"pillar/lifestyle",
            "pillarName":"Lifestyle"
         },
         {
            "id":"food/2023/mar/31/no-bake-lemon-meringue-pie-recipe-biscuit-base-ravneet-gill",
            "type":"article",
            "sectionId":"food",
            "sectionName":"Food",
            "webPublicationDate":"2023-03-31T14:00:25Z",
            "webTitle":"Ravneet Gill’s no-bake lemon meringue pie recipe | The Sweet Spot",
            "webUrl":"https://www.theguardian.com/food/2023/mar/31/no-bake-lemon-meringue-pie-recipe-biscuit-base-ravneet-gill",
            "apiUrl":"https://content.guardianapis.com/food/2023/mar/31/no-bake-lemon-meringue-pie-recipe-biscuit-base-ravneet-gill",
            "fields":{
               "headline":"Ravneet Gill’s no-bake lemon meringue pie recipe",
               "thumbnail":"https://media.guim.co.uk/311ffaaddaf3bce7c1a916e2e97519874baaf1e8/0_2448_5640_3384/500.jpg"
            },
            "tags":[

            ],
            "isHosted":false,
            "pillarId":"pillar/lifestyle",
            "pillarName":"Lifestyle"
         },
         {
            "id":"food/2023/mar/30/how-to-make-pasta-without-a-machine-its-fun-and-you-cant-really-get-it-wrong",
            "type":"article",
            "sectionId":"food",
            "sectionName":"Food",
            "webPublicationDate":"2023-03-29T14:00:39Z",
            "webTitle":"How to make pasta without a machine: ‘It’s fun and you can’t really get it wrong’",
            "webUrl":"https://www.theguardian.com/food/2023/mar/30/how-to-make-pasta-without-a-machine-its-fun-and-you-cant-really-get-it-wrong",
            "apiUrl":"https://content.guardianapis.com/food/2023/mar/30/how-to-make-pasta-without-a-machine-its-fun-and-you-cant-really-get-it-wrong",
            "fields":{
               "headline":"How to make pasta without a machine: ‘It’s fun and you can’t really get it wrong’",
               "thumbnail":"https://media.guim.co.uk/8eadb2373d9fd402fed9e9094fc57f987571459a/0_120_3600_2160/500.jpg"
            },
            "tags":[

            ],
            "isHosted":false,
            "pillarId":"pillar/lifestyle",
            "pillarName":"Lifestyle"
         },
         {
            "id":"food/2023/mar/29/how-to-make-the-perfect-nettle-soup-recipe-felicity-cloake",
            "type":"article",
            "sectionId":"food",
            "sectionName":"Food",
            "webPublicationDate":"2023-03-29T11:00:38Z",
            "webTitle":"How to make the perfect nettle soup – recipe | Felicity Cloake's How to make the perfect …",
            "webUrl":"https://www.theguardian.com/food/2023/mar/29/how-to-make-the-perfect-nettle-soup-recipe-felicity-cloake",
            "apiUrl":"https://content.guardianapis.com/food/2023/mar/29/how-to-make-the-perfect-nettle-soup-recipe-felicity-cloake",
            "fields":{
               "headline":"How to make the perfect nettle soup – recipe",
               "thumbnail":"https://media.guim.co.uk/a96c87dd5330e8582c1cf61c0d4c78a7e6869fb3/308_1200_3193_1916/500.jpg"
            },
            "tags":[

            ],
            "isHosted":false,
            "pillarId":"pillar/lifestyle",
            "pillarName":"Lifestyle"
         }
      ]
   }
}
